<?xml version="1.0" encoding="UTF-8" standalone="no"?>
<svg
   xmlns:dc="http://purl.org/dc/elements/1.1/"
   xmlns:cc="http://creativecommons.org/ns#"
   xmlns:rdf="http://www.w3.org/1999/02/22-rdf-syntax-ns#"
   xmlns:svg="http://www.w3.org/2000/svg"
   xmlns="http://www.w3.org/2000/svg"
   id="svg6"
   version="1.1"
   width="800"
   height="150"
   viewBox="0 0 750.00002 140.625">
  <metadata
     id="metadata12">
    <rdf:RDF>
      <cc:Work
         rdf:about="">
        <dc:format>image/svg+xml</dc:format>
        <dc:type
           rdf:resource="http://purl.org/dc/dcmitype/StillImage" />
        <dc:title></dc:title>
      </cc:Work>
    </rdf:RDF>
  </metadata>
  <defs
     id="defs10" />
  <g
     transform="matrix(1.2916281,0,0,1.2916281,-8.1009577,-39.731138)"
     id="g859">
    <g
       style="fill:#000000"
       id="g828"
       transform="matrix(1.1460444,0,0,1.1460444,7.0363867,30.76051)">
      <path
         d="M 94.908544,19.37409 C 94.908544,8.673974 86.234574,0 75.534459,0 64.88769,0 56.253997,8.59123 56.169077,19.217312 L 40.538068,21.307689 C 38.577252,15.301122 32.939766,10.958145 26.279956,10.958145 c -8.284207,0 -15.00172,6.716424 -15.00172,15.001721 0,6.64239 4.321202,12.266808 10.302727,14.239602 L 19.376269,56.255087 C 8.716437,56.304077 0.091456,64.955192 0.091456,75.624823 0.091456,86.324936 8.765429,95 19.465544,95 30.142797,95 38.797176,86.361955 38.83528,75.695589 l 18.092647,-2.50083 c 1.979326,5.971729 7.598302,10.285306 14.234162,10.285306 8.284204,0 15.001715,-6.716424 15.001715,-15.001719 0,-6.890622 -4.65218,-12.681619 -10.983188,-14.441019 l 1.36528,-15.339228 C 86.774584,38.167884 94.908544,29.73234 94.908544,19.37409 Z M 56.194119,67.800063 38.078608,70.305248 C 36.245174,63.882785 31.191253,58.833215 24.766611,57.005226 l 2.204694,-16.077393 c 7.712621,-0.353838 13.892294,-6.516095 14.270087,-14.222184 l 15.654962,-2.093642 c 1.894404,6.756707 7.351157,12.008781 14.22545,13.612489 l -1.365279,15.321809 c -7.400151,0.688083 -13.223811,6.753442 -13.562406,14.253758 z"
         id="path2-3"
         style="fill:#1e00ff;fill-opacity:1;stroke-width:1.08873796" />
    </g>
    <g
       aria-label="Soapbox"
       style="font-style:normal;font-weight:normal;font-size:15px;line-height:1.25;font-family:sans-serif;letter-spacing:0px;word-spacing:0px;fill:#1e00ff;fill-opacity:1;stroke:none;stroke-width:0.9375"
       id="text832"
       transform="translate(0,-168.75)">
      <path
         d="m 166.66354,282.54763 q -8.3,0 -16.1,-2.2 -7.7,-2.3 -12.4,-5.9 l 5.5,-12.2 q 4.5,3.3 10.7,5.3 6.2,2 12.4,2 6.9,0 10.2,-2 3.3,-2.1 3.3,-5.5 0,-2.5 -2,-4.1 -1.9,-1.7 -5,-2.7 -3,-1 -8.2,-2.2 -8,-1.9 -13.1,-3.8 -5.1,-1.9 -8.8,-6.1 -3.6,-4.2 -3.6,-11.2 0,-6.1 3.3,-11 3.3,-5 9.9,-7.9 6.7,-2.9 16.3,-2.9 6.7,0 13.1,1.6 6.4,1.6 11.2,4.6 l -5,12.3 q -9.7,-5.5 -19.4,-5.5 -6.8,0 -10.1,2.2 -3.2,2.2 -3.2,5.8 0,3.6 3.7,5.4 3.8,1.7 11.5,3.4 8,1.9 13.1,3.8 5.1,1.9 8.7,6 3.7,4.1 3.7,11.1 0,6 -3.4,11 -3.3,4.9 -10,7.8 -6.7,2.9 -16.3,2.9 z"
         style="font-style:normal;font-variant:normal;font-weight:bold;font-stretch:normal;font-size:100px;font-family:Montserrat;-inkscape-font-specification:'Montserrat Bold';fill:#1e00ff;fill-opacity:1;stroke-width:0.9375"
         id="path834" />
      <path
         d="m 232.03073,282.14763 q -8.5,0 -15.3,-3.5 -6.7,-3.6 -10.5,-9.9 -3.8,-6.3 -3.8,-14.3 0,-8 3.8,-14.3 3.8,-6.3 10.5,-9.8 6.8,-3.6 15.3,-3.6 8.5,0 15.2,3.6 6.7,3.5 10.5,9.8 3.8,6.3 3.8,14.3 0,8 -3.8,14.3 -3.8,6.3 -10.5,9.9 -6.7,3.5 -15.2,3.5 z m 0,-12.8 q 6,0 9.8,-4 3.9,-4.1 3.9,-10.9 0,-6.8 -3.9,-10.8 -3.8,-4.1 -9.8,-4.1 -6,0 -9.9,4.1 -3.9,4 -3.9,10.8 0,6.8 3.9,10.9 3.9,4 9.9,4 z"
         style="font-style:normal;font-variant:normal;font-weight:bold;font-stretch:normal;font-size:100px;font-family:Montserrat;-inkscape-font-specification:'Montserrat Bold';fill:#1e00ff;fill-opacity:1;stroke-width:0.9375"
         id="path836" />
      <path
         d="m 292.58385,226.74763 q 12.5,0 19.2,6 6.7,5.9 6.7,17.9 v 30.7 h -14.6 v -6.7 q -4.4,7.5 -16.4,7.5 -6.2,0 -10.8,-2.1 -4.5,-2.1 -6.9,-5.8 -2.4,-3.7 -2.4,-8.4 0,-7.5 5.6,-11.8 5.7,-4.3 17.5,-4.3 h 12.4 q 0,-5.1 -3.1,-7.8 -3.1,-2.8 -9.3,-2.8 -4.3,0 -8.5,1.4 -4.1,1.3 -7,3.6 l -5.6,-10.9 q 4.4,-3.1 10.5,-4.8 6.2,-1.7 12.7,-1.7 z m -1.2,44.9 q 4,0 7.1,-1.8 3.1,-1.9 4.4,-5.5 v -5.5 h -10.7 q -9.6,0 -9.6,6.3 0,3 2.3,4.8 2.4,1.7 6.5,1.7 z"
         style="font-style:normal;font-variant:normal;font-weight:bold;font-stretch:normal;font-size:100px;font-family:Montserrat;-inkscape-font-specification:'Montserrat Bold';fill:#1e00ff;fill-opacity:1;stroke-width:0.9375"
         id="path838" />
      <path
         d="m 364.4026,226.74763 q 7.5,0 13.6,3.5 6.2,3.4 9.7,9.7 3.5,6.2 3.5,14.5 0,8.3 -3.5,14.6 -3.5,6.2 -9.7,9.7 -6.1,3.4 -13.6,3.4 -10.3,0 -16.2,-6.5 v 25.1 h -15.6 v -73.2 h 14.9 v 6.2 q 5.8,-7 16.9,-7 z m -2.7,42.6 q 6,0 9.8,-4 3.9,-4.1 3.9,-10.9 0,-6.8 -3.9,-10.8 -3.8,-4.1 -9.8,-4.1 -6,0 -9.9,4.1 -3.8,4 -3.8,10.8 0,6.8 3.8,10.9 3.9,4 9.9,4 z"
         style="font-style:normal;font-variant:normal;font-weight:bold;font-stretch:normal;font-size:100px;font-family:Montserrat;-inkscape-font-specification:'Montserrat Bold';fill:#1e00ff;fill-opacity:1;stroke-width:0.9375"
         id="path840" />
      <path
         d="m 433.34792,226.74763 q 7.5,0 13.6,3.5 6.2,3.4 9.7,9.7 3.5,6.2 3.5,14.5 0,8.3 -3.5,14.6 -3.5,6.2 -9.7,9.7 -6.1,3.4 -13.6,3.4 -11.1,0 -16.9,-7 v 6.2 h -14.9 v -74.2 h 15.6 v 26.1 q 5.9,-6.5 16.2,-6.5 z m -2.7,42.6 q 6,0 9.8,-4 3.9,-4.1 3.9,-10.9 0,-6.8 -3.9,-10.8 -3.8,-4.1 -9.8,-4.1 -6,0 -9.9,4.1 -3.8,4 -3.8,10.8 0,6.8 3.8,10.9 3.9,4 9.9,4 z"
         style="font-style:normal;font-variant:normal;font-weight:bold;font-stretch:normal;font-size:100px;font-family:Montserrat;-inkscape-font-specification:'Montserrat Bold';fill:#1e00ff;fill-opacity:1;stroke-width:0.9375"
         id="path842" />
      <path
         d="m 496.09323,282.14763 q -8.5,0 -15.3,-3.5 -6.7,-3.6 -10.5,-9.9 -3.8,-6.3 -3.8,-14.3 0,-8 3.8,-14.3 3.8,-6.3 10.5,-9.8 6.8,-3.6 15.3,-3.6 8.5,0 15.2,3.6 6.7,3.5 10.5,9.8 3.8,6.3 3.8,14.3 0,8 -3.8,14.3 -3.8,6.3 -10.5,9.9 -6.7,3.5 -15.2,3.5 z m 0,-12.8 q 6,0 9.8,-4 3.9,-4.1 3.9,-10.9 0,-6.8 -3.9,-10.8 -3.8,-4.1 -9.8,-4.1 -6,0 -9.9,4.1 -3.9,4 -3.9,10.8 0,6.8 3.9,10.9 3.9,4 9.9,4 z"
         style="font-style:normal;font-variant:normal;font-weight:bold;font-stretch:normal;font-size:100px;font-family:Montserrat;-inkscape-font-specification:'Montserrat Bold';fill:#1e00ff;fill-opacity:1;stroke-width:0.9375"
         id="path844" />
      <path
         d="m 568.3651,281.34763 -11.8,-16.5 -12.2,16.5 h -17 l 20.7,-27.1 -20,-26.7 h 17.5 l 11.4,15.7 11.7,-15.7 h 16.6 l -20,26.3 20.8,27.5 z"
         style="font-style:normal;font-variant:normal;font-weight:bold;font-stretch:normal;font-size:100px;font-family:Montserrat;-inkscape-font-specification:'Montserrat Bold';fill:#1e00ff;fill-opacity:1;stroke-width:0.9375"
         id="path846" />
    </g>
  </g>
</svg>
